model,loss,tp,fp,tn,fn,accuracy,precision,recall,f1_score,cohen_kappa
inception_v3,0.14978685975074768,21.0,0.0,22.0,4.0,0.914893627166748,1.0,0.8399999737739563,0.9130434989929199,0.8309352397918701
xception,0.34670132398605347,21.0,4.0,18.0,4.0,0.8297872543334961,0.8399999737739563,0.8399999737739563,0.8399999737739563,0.6581818461418152
inception_resnet_v2,0.2785089910030365,20.0,0.0,22.0,5.0,0.8936170339584351,1.0,0.800000011920929,0.888888955116272,0.7892376780509949
NASNet,0.07572897523641586,25.0,1.0,21.0,0.0,0.978723406791687,0.9615384340286255,1.0,0.9803921580314636,0.9571558833122253
resnet152v2,0.19688202440738678,23.0,1.0,21.0,2.0,0.936170220375061,0.9583333134651184,0.9200000166893005,0.9387754797935486,0.8721668124198914
inception_v3,0.045694828033447266,24.0,0.0,22.0,1.0,0.978723406791687,1.0,0.9599999785423279,0.9795917868614197,0.9573889374732971
xception,0.19604940712451935,22.0,0.0,22.0,3.0,0.936170220375061,1.0,0.8799999952316284,0.936170220375061,0.8728584051132202
inception_resnet_v2,0.10814820230007172,24.0,1.0,21.0,1.0,0.957446813583374,0.9599999785423279,0.9599999785423279,0.9599999785423279,0.914545476436615
NASNet,0.004599805921316147,25.0,0.0,22.0,0.0,1.0,1.0,1.0,1.0,1.0
resnet152v2,0.07544153183698654,24.0,0.0,22.0,1.0,0.978723406791687,1.0,0.9599999785423279,0.9795917868614197,0.9573889374732971
inception_v3,0.12046549469232559,23.0,0.0,22.0,2.0,0.957446813583374,1.0,0.9200000166893005,0.9583333134651184,0.9150090217590332
xception,0.20058366656303406,23.0,0.0,22.0,2.0,0.957446813583374,1.0,0.9200000166893005,0.9583333134651184,0.9150090217590332
inception_resnet_v2,0.1370813548564911,25.0,1.0,21.0,0.0,0.978723406791687,0.9615384340286255,1.0,0.9803921580314636,0.9571558833122253
NASNet,0.14004816114902496,24.0,0.0,22.0,1.0,0.978723406791687,1.0,0.9599999785423279,0.9795917868614197,0.9573889374732971
resnet152v2,0.08837508410215378,24.0,0.0,22.0,1.0,0.978723406791687,1.0,0.9599999785423279,0.9795917868614197,0.9573889374732971
inception_v3,0.004624313674867153,25.0,0.0,22.0,0.0,1.0,1.0,1.0,1.0,1.0
xception,0.07406293600797653,25.0,0.0,22.0,0.0,1.0,1.0,1.0,1.0,1.0
inception_resnet_v2,0.0001402982888976112,25.0,0.0,22.0,0.0,1.0,1.0,1.0,1.0,1.0
NASNet,0.0005943762371316552,25.0,0.0,22.0,0.0,1.0,1.0,1.0,1.0,1.0
resnet152v2,0.008245717734098434,25.0,0.0,22.0,0.0,1.0,1.0,1.0,1.0,1.0
inception_v3,0.004475077614188194,25.0,0.0,22.0,0.0,1.0,1.0,1.0,1.0,1.0
xception,0.21660995483398438,23.0,1.0,21.0,2.0,0.936170220375061,0.9583333134651184,0.9200000166893005,0.9387754797935486,0.8721668124198914
inception_resnet_v2,0.014364674687385559,25.0,0.0,22.0,0.0,1.0,1.0,1.0,1.0,1.0
NASNet,0.015935737639665604,24.0,0.0,22.0,1.0,0.978723406791687,1.0,0.9599999785423279,0.9795917868614197,0.9573889374732971
resnet152v2,0.117582768201828,23.0,0.0,22.0,2.0,0.957446813583374,1.0,0.9200000166893005,0.9583333134651184,0.9150090217590332
inception_v3,0.01338567491620779,25.0,0.0,22.0,0.0,1.0,1.0,1.0,1.0,1.0
xception,0.2629527151584625,24.0,4.0,18.0,1.0,0.8936170339584351,0.8571428656578064,0.9599999785423279,0.9056603908538818,0.7846012711524963
inception_resnet_v2,0.0011629118816927075,25.0,0.0,22.0,0.0,1.0,1.0,1.0,1.0,1.0
NASNet,0.2158340960741043,24.0,0.0,22.0,1.0,0.978723406791687,1.0,0.9599999785423279,0.9795917868614197,0.9573889374732971
resnet152v2,0.23463328182697296,23.0,0.0,22.0,2.0,0.957446813583374,1.0,0.9200000166893005,0.9583333134651184,0.9150090217590332
inception_v3,0.013154369778931141,25.0,0.0,22.0,0.0,1.0,1.0,1.0,1.0,1.0
xception,0.03826113045215607,25.0,0.0,22.0,0.0,1.0,1.0,1.0,1.0,1.0
inception_resnet_v2,8.333683217642829e-05,25.0,0.0,22.0,0.0,1.0,1.0,1.0,1.0,1.0
NASNet,0.001111994031816721,25.0,0.0,22.0,0.0,1.0,1.0,1.0,1.0,1.0
resnet152v2,3.291827306384221e-05,25.0,0.0,22.0,0.0,1.0,1.0,1.0,1.0,1.0
inception_v3,0.1452653706073761,23.0,0.0,22.0,2.0,0.957446813583374,1.0,0.9200000166893005,0.9583333134651184,0.9150090217590332
xception,0.040262892842292786,24.0,0.0,22.0,1.0,0.978723406791687,1.0,0.9599999785423279,0.9795917868614197,0.9573889374732971
inception_resnet_v2,1.797694494598545e-05,25.0,0.0,22.0,0.0,1.0,1.0,1.0,1.0,1.0
NASNet,0.013963070698082447,25.0,0.0,22.0,0.0,1.0,1.0,1.0,1.0,1.0
resnet152v2,0.0942048653960228,24.0,0.0,22.0,1.0,0.978723406791687,1.0,0.9599999785423279,0.9795917868614197,0.9573889374732971
inception_v3,0.2035590410232544,24.0,0.0,22.0,1.0,0.978723406791687,1.0,0.9599999785423279,0.9795917868614197,0.9573889374732971
xception,0.19201777875423431,23.0,0.0,22.0,2.0,0.957446813583374,1.0,0.9200000166893005,0.9583333134651184,0.9150090217590332
inception_resnet_v2,6.227274411685357e-07,25.0,0.0,22.0,0.0,1.0,1.0,1.0,1.0,1.0
NASNet,8.204505866160616e-05,25.0,0.0,22.0,0.0,1.0,1.0,1.0,1.0,1.0
resnet152v2,0.06131795048713684,24.0,0.0,22.0,1.0,0.978723406791687,1.0,0.9599999785423279,0.9795917868614197,0.9573889374732971
inception_v3,0.0004429663822520524,25.0,0.0,22.0,0.0,1.0,1.0,1.0,1.0,1.0
xception,0.11930490285158157,23.0,0.0,22.0,2.0,0.957446813583374,1.0,0.9200000166893005,0.9583333134651184,0.9150090217590332
inception_resnet_v2,3.9020192161842715e-06,25.0,0.0,22.0,0.0,1.0,1.0,1.0,1.0,1.0
NASNet,6.114551979408134e-06,25.0,0.0,22.0,0.0,1.0,1.0,1.0,1.0,1.0
resnet152v2,1.076341504813172e-06,25.0,0.0,22.0,0.0,1.0,1.0,1.0,1.0,1.0
